{
	"version": "1.0",
	"description": "The GUI to help manage the keepDriveAlive service.",
	"homepage": "keepdrivealive.gitlab.io",
	"url": [
		 "https://gitlab.com/keepdrivealive/keepdrivealivegui/-/jobs/artifacts/master/download?job=build#/gui.zip",
		 "https://gitlab.com/keepdrivealive/keepdrivealiveservice/-/jobs/artifacts/master/download?job=build#/service.zip" ],
	"extract_to": [
		 "keepdrivealivegui",
		 "keepdrivealiveservice"
	],
	"license": "BSD 3-Clause \"New\" or \"Revised\" License",
	"env_add_path": "keepdrivealiveservice\\keepDriveAlive.exe",
	"installer": {
		"script": "Start-Process -Verb runas $dir\\keepdrivealiveservice\\keepDriveAlive.exe install"
	},
	"uninstaller": {
		"script": "Start-Process -Verb runas $dir\\keepdrivealiveservice\\keepDriveAlive.exe remove"
	},
	"shortcuts": [
		[
			"keepdrivealivegui\\keepDriveAliveGUI.exe",
			"KeepDriveAliveGUI"
		]
	],
	"post_install": "start $dir\\keepdrivealiveservice\\keepDriveAlive.exe.conf",
	"notes": " /!\\ Before running the service, don't forget to setup the configuration file which is accessible from the GUI !\n-----"
}
